{
  "annotations": {
    "list": [
      {
        "builtIn": 1,
        "datasource": {
          "type": "datasource",
          "uid": "grafana"
        },
        "enable": true,
        "hide": true,
        "iconColor": "rgba(0, 211, 255, 1)",
        "name": "Annotations & Alerts",
        "target": {
          "limit": 100,
          "matchAny": false,
          "tags": [],
          "type": "dashboard"
        },
        "type": "dashboard"
      }
    ]
  },
  "description": "Memory and swap usage on all machines",
  "editable": true,
  "fiscalYearStartMonth": 0,
  "graphTooltip": 0,
  "links": [],
  "liveNow": false,
  "panels": [
    {
      "datasource": {
        "type": "prometheus",
        "uid": "PBFA97CFB590B2093"
      },
      "fieldConfig": {
        "defaults": {
          "color": {
            "fixedColor": "dark-red",
            "mode": "palette-classic",
            "seriesBy": "last"
          },
          "custom": {
            "axisCenteredZero": false,
            "axisColorMode": "text",
            "axisLabel": "",
            "axisPlacement": "auto",
            "barAlignment": 0,
            "drawStyle": "line",
            "fillOpacity": 0,
            "gradientMode": "none",
            "hideFrom": {
              "legend": false,
              "tooltip": false,
              "viz": false
            },
            "insertNulls": false,
            "lineInterpolation": "linear",
            "lineWidth": 1,
            "pointSize": 5,
            "scaleDistribution": {
              "type": "linear"
            },
            "showPoints": "auto",
            "spanNulls": false,
            "stacking": {
              "group": "A",
              "mode": "none"
            },
            "thresholdsStyle": {
              "mode": "off"
            }
          },
          "mappings": [],
          "min": 0,
          "thresholds": {
            "mode": "absolute",
            "steps": [
              {
                "color": "green",
                "value": null
              },
              {
                "color": "red",
                "value": 80
              }
            ]
          },
          "unit": "short"
        },
        "overrides": []
      },
      "gridPos": {
        "h": 8,
        "w": 24,
        "x": 0,
        "y": 0
      },
      "id": 432,
      "options": {
        "legend": {
          "calcs": [
            "min",
            "max",
            "lastNotNull",
            "sum",
            "mean"
          ],
          "displayMode": "table",
          "placement": "bottom",
          "showLegend": true
        },
        "tooltip": {
          "mode": "single",
          "sort": "none"
        }
      },
      "targets": [
        {
          "datasource": {
            "type": "prometheus",
            "uid": "PBFA97CFB590B2093"
          },
          "editorMode": "code",
          "expr": "node_vmstat_oom_kill{instance=~\"$node:.*\",classes=~\"$class\"} > 0",
          "instant": false,
          "legendFormat": "{{alias}}",
          "range": true,
          "refId": "A"
        }
      ],
      "title": "Out of memory errors on hosts",
      "type": "timeseries"
    },
    {
      "collapsed": false,
      "gridPos": {
        "h": 1,
        "w": 24,
        "x": 0,
        "y": 8
      },
      "id": 174,
      "panels": [],
      "title": "Free memory and OOMs",
      "type": "row"
    },
    {
      "datasource": {
        "type": "prometheus",
        "uid": "PBFA97CFB590B2093"
      },
      "description": "Basic memory usage",
      "fieldConfig": {
        "defaults": {
          "color": {
            "mode": "palette-classic"
          },
          "custom": {
            "axisCenteredZero": false,
            "axisColorMode": "text",
            "axisLabel": "Memory",
            "axisPlacement": "auto",
            "barAlignment": 0,
            "drawStyle": "line",
            "fillOpacity": 40,
            "gradientMode": "none",
            "hideFrom": {
              "legend": false,
              "tooltip": false,
              "viz": false
            },
            "insertNulls": false,
            "lineInterpolation": "linear",
            "lineWidth": 1,
            "pointSize": 5,
            "scaleDistribution": {
              "type": "linear"
            },
            "showPoints": "never",
            "spanNulls": false,
            "stacking": {
              "group": "A",
              "mode": "none"
            },
            "thresholdsStyle": {
              "mode": "off"
            }
          },
          "mappings": [],
          "min": 0,
          "thresholds": {
            "mode": "absolute",
            "steps": [
              {
                "color": "green",
                "value": null
              },
              {
                "color": "red",
                "value": 80
              }
            ]
          },
          "unit": "bytes"
        },
        "overrides": [
          {
            "matcher": {
              "id": "byRegexp",
              "options": "/OOM events.*/"
            },
            "properties": [
              {
                "id": "custom.fillOpacity",
                "value": 0
              },
              {
                "id": "custom.lineWidth",
                "value": 0
              },
              {
                "id": "custom.showPoints",
                "value": "always"
              },
              {
                "id": "custom.stacking",
                "value": {
                  "group": "A",
                  "mode": "none"
                }
              },
              {
                "id": "unit",
                "value": "short"
              },
              {
                "id": "decimals",
                "value": 0
              },
              {
                "id": "custom.axisLabel",
                "value": "OOMs"
              },
              {
                "id": "color",
                "value": {
                  "fixedColor": "dark-red",
                  "mode": "fixed"
                }
              }
            ]
          }
        ]
      },
      "gridPos": {
        "h": 8,
        "w": 6,
        "x": 0,
        "y": 9
      },
      "id": 261,
      "links": [],
      "options": {
        "legend": {
          "calcs": [
            "lastNotNull",
            "min",
            "max",
            "mean"
          ],
          "displayMode": "table",
          "placement": "bottom",
          "showLegend": true,
          "width": 350
        },
        "tooltip": {
          "mode": "multi",
          "sort": "none"
        }
      },
      "pluginVersion": "10.0.3",
      "repeat": "node",
      "repeatDirection": "h",
      "targets": [
        {
          "datasource": {
            "type": "prometheus",
            "uid": "PBFA97CFB590B2093"
          },
          "editorMode": "code",
          "expr": "node_memory_MemTotal_bytes{instance=~\"$node:.*\",classes=~\"$class\"}",
          "format": "time_series",
          "hide": false,
          "intervalFactor": 2,
          "legendFormat": "RAM Total",
          "range": true,
          "refId": "A",
          "step": 240
        },
        {
          "datasource": {
            "type": "prometheus",
            "uid": "PBFA97CFB590B2093"
          },
          "editorMode": "code",
          "expr": "node_memory_MemTotal_bytes{instance=~\"$node:.*\",classes=~\"$class\"} - node_memory_MemFree_bytes{instance=~\"$node:.*\",classes=~\"$class\"} - (node_memory_Cached_bytes{instance=~\"$node:.*\",classes=~\"$class\"} + node_memory_Buffers_bytes{instance=~\"$node:.*\",classes=~\"$class\"})",
          "format": "time_series",
          "hide": true,
          "intervalFactor": 2,
          "legendFormat": "RAM Used",
          "range": true,
          "refId": "D",
          "step": 240
        },
        {
          "datasource": {
            "type": "prometheus",
            "uid": "PBFA97CFB590B2093"
          },
          "editorMode": "code",
          "expr": "node_memory_Cached_bytes{instance=~\"$node:.*\",classes=~\"$class\"} + node_memory_Buffers_bytes{instance=~\"$node:.*\",classes=~\"$class\"}",
          "format": "time_series",
          "hide": true,
          "intervalFactor": 2,
          "legendFormat": "RAM Cache + Buffer",
          "range": true,
          "refId": "B",
          "step": 240
        },
        {
          "datasource": {
            "type": "prometheus",
            "uid": "PBFA97CFB590B2093"
          },
          "editorMode": "code",
          "expr": "node_memory_MemFree_bytes{instance=~\"$node:.*\",classes=~\"$class\"}",
          "format": "time_series",
          "hide": false,
          "intervalFactor": 2,
          "legendFormat": "RAM Free",
          "range": true,
          "refId": "F",
          "step": 240
        },
        {
          "datasource": {
            "type": "prometheus",
            "uid": "PBFA97CFB590B2093"
          },
          "editorMode": "code",
          "expr": "(node_memory_SwapTotal_bytes{instance=~\"$node:.*\",classes=~\"$class\"} - node_memory_SwapFree_bytes{instance=~\"$node:.*\",classes=~\"$class\"})",
          "format": "time_series",
          "hide": true,
          "intervalFactor": 2,
          "legendFormat": "SWAP Used",
          "range": true,
          "refId": "G",
          "step": 240
        },
        {
          "datasource": {
            "type": "prometheus",
            "uid": "PBFA97CFB590B2093"
          },
          "editorMode": "code",
          "expr": "node_vmstat_oom_kill{instance=~\"$node:.*\",classes=~\"$class\"} > 0",
          "hide": false,
          "legendFormat": "OOM events",
          "range": true,
          "refId": "C"
        }
      ],
      "title": "$node",
      "type": "timeseries"
    },
    {
      "collapsed": true,
      "gridPos": {
        "h": 1,
        "w": 24,
        "x": 0,
        "y": 193
      },
      "id": 434,
      "panels": [
        {
          "datasource": {
            "type": "prometheus",
            "uid": "PBFA97CFB590B2093"
          },
          "description": "",
          "fieldConfig": {
            "defaults": {
              "color": {
                "mode": "palette-classic"
              },
              "custom": {
                "axisCenteredZero": false,
                "axisColorMode": "text",
                "axisLabel": "Bytes",
                "axisPlacement": "auto",
                "barAlignment": 0,
                "drawStyle": "line",
                "fillOpacity": 40,
                "gradientMode": "none",
                "hideFrom": {
                  "legend": false,
                  "tooltip": false,
                  "viz": false
                },
                "insertNulls": false,
                "lineInterpolation": "linear",
                "lineWidth": 1,
                "pointSize": 5,
                "scaleDistribution": {
                  "type": "linear"
                },
                "showPoints": "never",
                "spanNulls": false,
                "stacking": {
                  "group": "A",
                  "mode": "normal"
                },
                "thresholdsStyle": {
                  "mode": "off"
                }
              },
              "mappings": [],
              "min": 0,
              "thresholds": {
                "mode": "absolute",
                "steps": [
                  {
                    "color": "green"
                  },
                  {
                    "color": "red",
                    "value": 80
                  }
                ]
              },
              "unit": "bytes"
            },
            "overrides": [
              {
                "matcher": {
                  "id": "byName",
                  "options": "Swap"
                },
                "properties": [
                  {
                    "id": "color",
                    "value": {
                      "fixedColor": "#BF1B00",
                      "mode": "fixed"
                    }
                  }
                ]
              },
              {
                "matcher": {
                  "id": "byRegexp",
                  "options": "/.*Hardware.*Corrupt.*/"
                },
                "properties": [
                  {
                    "id": "color",
                    "value": {
                      "fixedColor": "dark-orange",
                      "mode": "fixed"
                    }
                  }
                ]
              }
            ]
          },
          "gridPos": {
            "h": 13,
            "w": 6,
            "x": 0,
            "y": 10
          },
          "id": 433,
          "links": [],
          "options": {
            "legend": {
              "calcs": [
                "mean",
                "lastNotNull",
                "max",
                "min"
              ],
              "displayMode": "table",
              "placement": "bottom",
              "showLegend": true,
              "width": 350
            },
            "tooltip": {
              "mode": "multi",
              "sort": "none"
            }
          },
          "pluginVersion": "10.1.1",
          "repeat": "node",
          "repeatDirection": "h",
          "targets": [
            {
              "datasource": {
                "type": "prometheus",
                "uid": "PBFA97CFB590B2093"
              },
              "editorMode": "code",
              "expr": "node_memory_MemTotal_bytes{classes=~\"$class\",instance=~\"$node:.*\"} - node_memory_MemFree_bytes{classes=~\"$class\",instance=~\"$node:.*\"} - node_memory_Buffers_bytes{classes=~\"$class\",instance=~\"$node:.*\"} - node_memory_Cached_bytes{classes=~\"$class\",instance=~\"$node:.*\"} - node_memory_Slab_bytes{classes=~\"$class\",instance=~\"$node:.*\"} - node_memory_PageTables_bytes{classes=~\"$class\",instance=~\"$node:.*\"} - node_memory_SwapCached_bytes{classes=~\"$class\",instance=~\"$node:.*\"}",
              "format": "time_series",
              "hide": false,
              "intervalFactor": 2,
              "legendFormat": "Apps",
              "range": true,
              "refId": "Q",
              "step": 240
            },
            {
              "datasource": {
                "type": "prometheus",
                "uid": "PBFA97CFB590B2093"
              },
              "editorMode": "code",
              "expr": "node_memory_PageTables_bytes{classes=~\"$class\",instance=~\"$node:.*\"}",
              "format": "time_series",
              "hide": false,
              "intervalFactor": 2,
              "legendFormat": "PageTables",
              "range": true,
              "refId": "G",
              "step": 240
            },
            {
              "datasource": {
                "type": "prometheus",
                "uid": "PBFA97CFB590B2093"
              },
              "editorMode": "code",
              "expr": "node_memory_SwapCached_bytes{classes=~\"$class\",instance=~\"$node:.*\"}",
              "format": "time_series",
              "hide": false,
              "intervalFactor": 2,
              "legendFormat": "SwapCache",
              "range": true,
              "refId": "F",
              "step": 240
            },
            {
              "datasource": {
                "type": "prometheus",
                "uid": "PBFA97CFB590B2093"
              },
              "editorMode": "code",
              "expr": "node_memory_Slab_bytes{classes=~\"$class\",instance=~\"$node:.*\"}",
              "format": "time_series",
              "hide": false,
              "intervalFactor": 2,
              "legendFormat": "Slab",
              "range": true,
              "refId": "E",
              "step": 240
            },
            {
              "datasource": {
                "type": "prometheus",
                "uid": "PBFA97CFB590B2093"
              },
              "editorMode": "code",
              "expr": "node_memory_Cached_bytes{classes=~\"$class\",instance=~\"$node:.*\"}",
              "format": "time_series",
              "hide": false,
              "intervalFactor": 2,
              "legendFormat": "Cache",
              "range": true,
              "refId": "C",
              "step": 240
            },
            {
              "datasource": {
                "type": "prometheus",
                "uid": "PBFA97CFB590B2093"
              },
              "editorMode": "code",
              "expr": "node_memory_Buffers_bytes{classes=~\"$class\",instance=~\"$node:.*\"}",
              "format": "time_series",
              "hide": false,
              "intervalFactor": 2,
              "legendFormat": "Buffers",
              "range": true,
              "refId": "B",
              "step": 240
            },
            {
              "datasource": {
                "type": "prometheus",
                "uid": "PBFA97CFB590B2093"
              },
              "editorMode": "code",
              "expr": "node_memory_MemFree_bytes{classes=~\"$class\",instance=~\"$node:.*\"}",
              "format": "time_series",
              "hide": false,
              "intervalFactor": 2,
              "legendFormat": "Unused",
              "range": true,
              "refId": "D",
              "step": 240
            },
            {
              "datasource": {
                "type": "prometheus",
                "uid": "PBFA97CFB590B2093"
              },
              "editorMode": "code",
              "expr": "(node_memory_SwapTotal_bytes{classes=~\"$class\",instance=~\"$node:.*\"} - node_memory_SwapFree_bytes{classes=~\"$class\",instance=~\"$node:.*\"})",
              "format": "time_series",
              "hide": false,
              "intervalFactor": 2,
              "legendFormat": "Swap",
              "range": true,
              "refId": "I",
              "step": 240
            },
            {
              "datasource": {
                "type": "prometheus",
                "uid": "PBFA97CFB590B2093"
              },
              "editorMode": "code",
              "expr": "node_memory_HardwareCorrupted_bytes{classes=~\"$class\",instance=~\"$node:.*\"} != 0",
              "format": "time_series",
              "hide": false,
              "intervalFactor": 2,
              "legendFormat": "HardwareCorrupted",
              "range": true,
              "refId": "O",
              "step": 240
            }
          ],
          "title": "$node",
          "type": "timeseries"
        }
      ],
      "title": "Detailed memory statistics",
      "type": "row"
    },
    {
      "collapsed": true,
      "gridPos": {
        "h": 1,
        "w": 24,
        "x": 0,
        "y": 194
      },
      "id": 88,
      "panels": [
        {
          "datasource": {
            "type": "prometheus",
            "uid": "PBFA97CFB590B2093"
          },
          "fieldConfig": {
            "defaults": {
              "color": {
                "mode": "palette-classic"
              },
              "custom": {
                "axisCenteredZero": false,
                "axisColorMode": "text",
                "axisLabel": "",
                "axisPlacement": "auto",
                "barAlignment": 0,
                "drawStyle": "line",
                "fillOpacity": 10,
                "gradientMode": "none",
                "hideFrom": {
                  "legend": false,
                  "tooltip": false,
                  "viz": false
                },
                "insertNulls": false,
                "lineInterpolation": "linear",
                "lineWidth": 1,
                "pointSize": 5,
                "scaleDistribution": {
                  "type": "linear"
                },
                "showPoints": "never",
                "spanNulls": false,
                "stacking": {
                  "group": "A",
                  "mode": "none"
                },
                "thresholdsStyle": {
                  "mode": "line+area"
                }
              },
              "links": [],
              "mappings": [],
              "min": 0,
              "thresholds": {
                "mode": "absolute",
                "steps": [
                  {
                    "color": "transparent",
                    "value": null
                  },
                  {
                    "color": "orange",
                    "value": 100000000
                  },
                  {
                    "color": "red",
                    "value": 1000000000
                  }
                ]
              },
              "unit": "decbytes"
            },
            "overrides": []
          },
          "gridPos": {
            "h": 8,
            "w": 24,
            "x": 0,
            "y": 23
          },
          "id": 2,
          "options": {
            "legend": {
              "calcs": [
                "mean",
                "lastNotNull",
                "max",
                "min"
              ],
              "displayMode": "table",
              "placement": "bottom",
              "showLegend": true
            },
            "tooltip": {
              "mode": "multi",
              "sort": "none"
            }
          },
          "pluginVersion": "10.0.3",
          "repeat": "node",
          "repeatDirection": "h",
          "targets": [
            {
              "datasource": {
                "type": "prometheus",
                "uid": "PBFA97CFB590B2093"
              },
              "editorMode": "code",
              "exemplar": false,
              "expr": "node_memory_SwapCached_bytes{instance=~\"$node:.*\"}",
              "instant": false,
              "legendFormat": "swap",
              "range": true,
              "refId": "A"
            }
          ],
          "title": "$node",
          "type": "timeseries"
        }
      ],
      "title": "Swap usage",
      "type": "row"
    }
  ],
  "refresh": "",
  "schemaVersion": 38,
  "style": "dark",
  "tags": [
    "provisioned"
  ],
  "templating": {
    "list": [
      {
        "current": {
          "selected": true,
          "text": [
            "All"
          ],
          "value": [
            "$__all"
          ]
        },
        "datasource": {
          "type": "prometheus",
          "uid": "PBFA97CFB590B2093"
        },
        "definition": "label_values(node_exporter_build_info,classes)",
        "hide": 0,
        "includeAll": true,
        "multi": true,
        "name": "class",
        "options": [],
        "query": {
          "query": "label_values(node_exporter_build_info,classes)",
          "refId": "PrometheusVariableQueryEditor-VariableQuery"
        },
        "refresh": 1,
        "regex": "",
        "skipUrlSync": false,
        "sort": 0,
        "type": "query"
      },
      {
        "current": {
          "selected": true,
          "text": [
            "All"
          ],
          "value": [
            "$__all"
          ]
        },
        "datasource": {
          "type": "prometheus",
          "uid": "PBFA97CFB590B2093"
        },
        "definition": "label_values(node_exporter_build_info{classes=~\"$class\"},instance)",
        "hide": 0,
        "includeAll": true,
        "multi": true,
        "name": "node",
        "options": [],
        "query": {
          "query": "label_values(node_exporter_build_info{classes=~\"$class\"},instance)",
          "refId": "PrometheusVariableQueryEditor-VariableQuery"
        },
        "refresh": 1,
        "regex": "/([^:]*):.*/",
        "skipUrlSync": false,
        "sort": 1,
        "tagValuesQuery": "",
        "tagsQuery": "",
        "type": "query",
        "useTags": false
      }
    ]
  },
  "time": {
    "from": "now-24h",
    "to": "now"
  },
  "timepicker": {
    "refresh_intervals": [
      "5s",
      "10s",
      "30s",
      "1m",
      "5m",
      "15m",
      "30m",
      "1h",
      "2h",
      "1d"
    ]
  },
  "timezone": "",
  "title": "Memory usage",
  "uid": "amgrk2Qnk",
  "version": 21,
  "weekStart": ""
}